\relax 
\providecommand\hyper@newdestlabel[2]{}
\providecommand\HyperFirstAtBeginDocument{\AtBeginDocument}
\HyperFirstAtBeginDocument{\ifx\hyper@anchor\@undefined
\global\let\oldcontentsline\contentsline
\gdef\contentsline#1#2#3#4{\oldcontentsline{#1}{#2}{#3}}
\global\let\oldnewlabel\newlabel
\gdef\newlabel#1#2{\newlabelxx{#1}#2}
\gdef\newlabelxx#1#2#3#4#5#6{\oldnewlabel{#1}{{#2}{#3}}}
\AtEndDocument{\ifx\hyper@anchor\@undefined
\let\contentsline\oldcontentsline
\let\newlabel\oldnewlabel
\fi}
\fi}
\global\let\hyper@last\relax 
\gdef\HyperFirstAtBeginDocument#1{#1}
\providecommand\HyField@AuxAddToFields[1]{}
\providecommand\HyField@AuxAddToCoFields[2]{}
\@writefile{toc}{\contentsline {section}{\numberline {1}Introduction}{1}{section.1}\protected@file@percent }
\@writefile{toc}{\contentsline {section}{\numberline {2}The Problem}{1}{section.2}\protected@file@percent }
\@writefile{toc}{\contentsline {subsection}{\numberline {2.1}hyp PDE}{1}{subsection.2.1}\protected@file@percent }
\citation{DAE_book}
\citation{Tren12}
\citation{BergTren12}
\@writefile{toc}{\contentsline {subsection}{\numberline {2.2}DAE}{2}{subsection.2.2}\protected@file@percent }
\newlabel{eq:DAE}{{3a}{2}{DAE}{equation.2.1}{}}
\newlabel{eq:DAE_IV}{{3b}{2}{DAE}{equation.2.2}{}}
\newlabel{eq:QWF}{{4}{2}{\cite {Tren12}}{equation.2.4}{}}
\bibstyle{plain}
\bibdata{PDE_DAE_BV}
\@writefile{toc}{\contentsline {section}{\numberline {3}The coupled system}{3}{section.3}\protected@file@percent }
